{
  "name": "RIG Manager",
  "description": "Rig plugin.",
  "ngModules": [
    "rig.plugin"   
  ],
  "js": [
    "index.js",
    
    "rig/rig.module.js",
    
    "rig/common/common.module.js",
    "rig/common/rig.service.js",
    "rig/common/rig.agent.service.js",
    
    "rig/components/components.module.js",
    
    "rig/components/overspeed_rig/overspeed.module.js",    
    "rig/components/overspeed_rig/overspeed.directive.js",
    "rig/components/overspeed_rig/overspeed.editor.directive.js",

    "rig/components/traveltime_rig/traveltime.module.js",
    "rig/components/traveltime_rig/traveltime.directive.js",
    "rig/components/traveltime_rig/traveltime.editor.directive.js",


    "rig/components/rig_list/riglist.module.js",
    "rig/components/rig_list/riglist.controller.js",
    "rig/components/rig_list/riglist.directive.js",

    "rig/components/rig_detail/rigdetail.module.js",
    "rig/components/rig_detail/rigdetail.controller.js",    

    "rig/components/rig_edit/rigedit.module.js",
    "rig/components/rig_edit/rigedit.controller.js"    
  ],
  "css":[
  ],
  "copy":[

    "rig/components/rig_list/rigs.html",

    "rig/components/rigdetail.html",
    "rig/components/rig_edit/rigedit.html",
    
    "rig/components/overspeed_rig/overspeed.template.html",
    "rig/components/overspeed_rig/overspeed.editor.template.html",
    
    "rig/components/traveltime_rig/traveltime.template.html",
    "rig/components/traveltime_rig/traveltime.editor.template.html"

  ]
}